<svg xmlns="http://www.w3.org/2000/svg" width="43" height="56" viewBox="0 0 30 39">
    <title>pin-ah copy 14</title>
    <desc>Created with Sketch.</desc>
    <g fill="none">
        <g style="fill:#3B9FE2;stroke:#FFF">
            <path
                d="M29 15C28.9 7.3 22.7 1 15 1 7.3 1 1 7.3 1 15 1 17.8 1.8 20.4 3.2 22.5L3.2 22.5 3.3 22.7C3.4 22.9 3.5 23 3.7 23.2L14.1 37.7 14.2 37.7C14.4 38.1 14.8 38.3 15.2 38.3 15.6 38.3 16 38.1 16.2 37.7L16.3 37.7 26.6 23.1 26.6 23.1C28.1 20.8 29.1 18 29 15"/>
        </g>
        <path
            d="M16.1 12.4C16.6 11.9 17.1 11 17.8 10.5 18.5 10.1 19.5 9.9 20.2 10.3 21.1 10.7 21.6 11.5 21.7 12.4L21.7 19.6 19.9 19.6 19.9 12.7C19.9 12.4 19.6 12.1 19.4 12 19 11.9 18.7 12.1 18.4 12.3L16.1 15.2 16.1 19.6 14.3 19.6 14.3 17.6C13.9 18.1 13.4 18.6 13 19 12.4 19.5 11.6 19.7 10.8 19.6 10.6 19.5 10.3 19.5 10.1 19.4 7.9 18.4 8.6 15.4 8.5 13.2 8.6 12.1 8.8 11 9.7 10.5L9.7 10.5C9.9 10.4 10.1 10.3 10.3 10.2 10.5 10.2 10.6 10.1 10.8 10.1 11 10.1 11.2 10.1 11.4 10.1L11.4 10.1C12.5 10.3 13.2 11.1 13.9 11.9 14 12 14.1 12.2 14.2 12.4L14.3 12.4 14.3 10.9 16.1 8.5 16.1 12.4 16.1 12.4ZM11.3 12C11 12 10.7 12.1 10.5 12.4 10.2 13.6 10.3 15 10.3 16.3 10.4 16.8 10.4 17.4 10.8 17.7 10.9 17.8 10.9 17.7 11 17.8 11.3 17.8 11.6 17.8 11.9 17.6 12.8 16.9 13.3 16 14 15.2 13.6 14.4 13.1 13.8 12.6 13.1 12.2 12.7 11.9 12.2 11.3 12L11.3 12Z"
            fill="#FFF"/>
    </g>
</svg>
